/home/joni/lomba/ManTraNet/data/forged/I36_c6kg201_0.jpg,1
/home/joni/lomba/ManTraNet/data/forged/I25_cfqcby6_0.resaved.jpg,1
/home/joni/lomba/ManTraNet/data/forged/I17_cyjua90_0.png,1
/home/joni/lomba/ManTraNet/data/forged/I54_cl3th0c_0.resaved.jpg,1
/home/joni/lomba/ManTraNet/data/forged/I42_c8rf1vq_0.jpg,1
/home/joni/lomba/ManTraNet/data/forged/I22_cz0u4ta_0.resaved.jpg,1
/home/joni/lomba/ManTraNet/data/forged/I21_cmu4j71_0.png,1
/home/joni/lomba/ManTraNet/data/forged/I38_cnsju41_0.jpg,1
/home/joni/lomba/ManTraNet/data/forged/I32_c63ghlk_0.resaved.jpg,1
/home/joni/lomba/ManTraNet/data/forged/I24_d4t4tzx_0.jpg,1
/home/joni/lomba/ManTraNet/data/forged/I69_cn5w2hu_0.resaved.jpg,1
/home/joni/lomba/ManTraNet/data/forged/I34_d4t7pgj_0.resaved.jpg,1
/home/joni/lomba/ManTraNet/data/forged/I05_clefa92_0.resaved.jpg,1
/home/joni/lomba/ManTraNet/data/forged/I18_d40zw97_0.resaved.jpg,1
/home/joni/lomba/ManTraNet/data/forged/I00_dgzb67i_0.resaved.jpg,1
/home/joni/lomba/ManTraNet/data/forged/I71_crzjcce_0.resaved.jpg,1
/home/joni/lomba/ManTraNet/data/forged/I71_crzjcce_0.png,1
/home/joni/lomba/ManTraNet/data/forged/I23_d28n9t6_0.jpg,1
/home/joni/lomba/ManTraNet/data/forged/I60_dbcjtzt_0.resaved.jpg,1
/home/joni/lomba/ManTraNet/data/forged/I70_d2r3t1t_0.png,1
/home/joni/lomba/ManTraNet/data/forged/I59_c542dqi_0.resaved.jpg,1
/home/joni/lomba/ManTraNet/data/forged/I03_d3hme6v_0.jpg,1
/home/joni/lomba/ManTraNet/data/forged/I04_d55zi8z_0.resaved.jpg,1
/home/joni/lomba/ManTraNet/data/forged/I52_dbqmwag_0.resaved.jpg,1
/home/joni/lomba/ManTraNet/data/forged/I16_cpjvj5p_0.png,1
/home/joni/lomba/ManTraNet/data/forged/I37_cc88vwh_0.jpg,1
/home/joni/lomba/ManTraNet/data/forged/I69_cn5w2hu_0.png,1
/home/joni/lomba/ManTraNet/data/forged/I08_cdycjjy_0.resaved.jpg,1
/home/joni/lomba/ManTraNet/data/forged/I64_d28uhu8_0.resaved.jpg,1
/home/joni/lomba/ManTraNet/data/forged/I44_dmgwr7v_0.png,1
/home/joni/lomba/ManTraNet/data/forged/I60_dbcjtzt_0.png,1
/home/joni/lomba/ManTraNet/data/forged/I43_cgz4lc3_0.jpg,1
/home/joni/lomba/ManTraNet/data/forged/I14_cegecbv_0.png,1
/home/joni/lomba/ManTraNet/data/forged/I53_d51atjj_0.resaved.jpg,1
/home/joni/lomba/ManTraNet/data/forged/I14_cegecbv_0.resaved.jpg,1
/home/joni/lomba/ManTraNet/data/forged/I38_cnsju41_0.resaved.jpg,1
/home/joni/lomba/ManTraNet/data/forged/I39_cle8spn_0.resaved.jpg,1
/home/joni/lomba/ManTraNet/data/forged/I18_d40zw97_0.png,1
/home/joni/lomba/ManTraNet/data/forged/I55_c7txjih_0.resaved.jpg,1
/home/joni/lomba/ManTraNet/data/forged/I26_cgltm2m_0.jpg,1
/home/joni/lomba/ManTraNet/data/forged/I58_cgzfseh_0.resaved.jpg,1
/home/joni/lomba/ManTraNet/data/forged/I67_dlikyki_0.resaved.jpg,1
/home/joni/lomba/ManTraNet/data/forged/I33_dgzdnl4_0.resaved.jpg,1
/home/joni/lomba/ManTraNet/data/forged/I11_c7u11qp_0.resaved.jpg,1
/home/joni/lomba/ManTraNet/data/forged/I27_cjjkjik_0.resaved.jpg,1
/home/joni/lomba/ManTraNet/data/forged/I30_d51khip_0.jpg,1
/home/joni/lomba/ManTraNet/data/forged/I58_cgzfseh_0.jpg,1
/home/joni/lomba/ManTraNet/data/forged/I34_d4t7pgj_0.jpg,1
/home/joni/lomba/ManTraNet/data/forged/I07_crowr3x_0.resaved.jpg,1
/home/joni/lomba/ManTraNet/data/forged/I25_cfqcby6_0.jpg,1
/home/joni/lomba/ManTraNet/data/forged/I41_dlj1nzd_0.jpg,1
/home/joni/lomba/ManTraNet/data/forged/I24_d4t4tzx_0.resaved.jpg,1
/home/joni/lomba/ManTraNet/data/forged/I62_c6nq8cr_0.resaved.jpg,1
/home/joni/lomba/ManTraNet/data/forged/I42_c8rf1vq_0.resaved.jpg,1
/home/joni/lomba/ManTraNet/data/forged/I49_cef8lx8_0.jpg,1
/home/joni/lomba/ManTraNet/data/forged/I52_dbqmwag_0.jpg,1
/home/joni/lomba/ManTraNet/data/forged/I62_c6nq8cr_0.png,1
/home/joni/lomba/ManTraNet/data/forged/I15_dp0kyvg_0.resaved.jpg,1
/home/joni/lomba/ManTraNet/data/forged/I19_crzkc6n_0.resaved.jpg,1
/home/joni/lomba/ManTraNet/data/forged/I26_cgltm2m_0.resaved.jpg,1
/home/joni/lomba/ManTraNet/data/forged/I54_cl3th0c_0.jpg,1
/home/joni/lomba/ManTraNet/data/forged/I35_c5vuwc7_0.jpg,1
/home/joni/lomba/ManTraNet/data/forged/I28_c7oss1x_0.jpg,1
/home/joni/lomba/ManTraNet/data/forged/I12_cywkdza_0.jpg,1
/home/joni/lomba/ManTraNet/data/forged/I67_dlikyki_0.jpg,1
/home/joni/lomba/ManTraNet/data/forged/I50_dggu54h_0.resaved.jpg,1
/home/joni/lomba/ManTraNet/data/forged/I57_cjf91b6_0.resaved.jpg,1
/home/joni/lomba/ManTraNet/data/forged/I46_cskpjxr_0.png,1
/home/joni/lomba/ManTraNet/data/forged/I53_d51atjj_0.jpg,1
/home/joni/lomba/ManTraNet/data/forged/I02_dm545yj_0.resaved.jpg,1
/home/joni/lomba/ManTraNet/data/forged/I22_cz0u4ta_0.png,1
/home/joni/lomba/ManTraNet/data/forged/I47_dhvjugf_0.png,1
/home/joni/lomba/ManTraNet/data/forged/I19_crzkc6n_0.png,1
/home/joni/lomba/ManTraNet/data/forged/I32_c63ghlk_0.jpg,1
/home/joni/lomba/ManTraNet/data/forged/I30_d51khip_0.resaved.jpg,1
/home/joni/lomba/ManTraNet/data/forged/I45_cpo0jq1_0.png,1
/home/joni/lomba/ManTraNet/data/forged/I63_cabftvl_0.resaved.jpg,1
/home/joni/lomba/ManTraNet/data/forged/I65_cnrra78_0.resaved.jpg,1
/home/joni/lomba/ManTraNet/data/forged/I02_dm545yj_0.jpg,1
/home/joni/lomba/ManTraNet/data/forged/I10_d2ocrts_0.jpg,1
/home/joni/lomba/ManTraNet/data/forged/I50_dggu54h_0.jpg,1
/home/joni/lomba/ManTraNet/data/forged/I01_d4a2hp0_0.resaved.jpg,1
/home/joni/lomba/ManTraNet/data/forged/I01_d4a2hp0_0.jpg,1
/home/joni/lomba/ManTraNet/data/forged/I44_dmgwr7v_0.resaved.jpg,1
/home/joni/lomba/ManTraNet/data/forged/I29_dg8jy3k_0.jpg,1
/home/joni/lomba/ManTraNet/data/forged/I61_d6t11na_0.resaved.jpg,1
/home/joni/lomba/ManTraNet/data/forged/I55_c7txjih_0.jpg,1
/home/joni/lomba/ManTraNet/data/forged/I00_dgzb67i_0.jpg,1
/home/joni/lomba/ManTraNet/data/forged/I11_c7u11qp_0.jpg,1
/home/joni/lomba/ManTraNet/data/forged/I05_clefa92_0.jpg,1
/home/joni/lomba/ManTraNet/data/forged/I08_cdycjjy_0.jpg,1
/home/joni/lomba/ManTraNet/data/forged/I70_d2r3t1t_0.resaved.jpg,1
/home/joni/lomba/ManTraNet/data/forged/I03_d3hme6v_0.resaved.jpg,1
/home/joni/lomba/ManTraNet/data/forged/I12_cywkdza_0.resaved.jpg,1
/home/joni/lomba/ManTraNet/data/forged/I49_cef8lx8_0.resaved.jpg,1
/home/joni/lomba/ManTraNet/data/forged/I57_cjf91b6_0.jpg,1
/home/joni/lomba/ManTraNet/data/forged/I17_cyjua90_0.resaved.jpg,1
/home/joni/lomba/ManTraNet/data/forged/I13_cqbsyzy_0.jpg,1
/home/joni/lomba/ManTraNet/data/forged/I31_cg3bysj_0.jpg,1
/home/joni/lomba/ManTraNet/data/forged/I21_cmu4j71_0.resaved.jpg,1
/home/joni/lomba/ManTraNet/data/forged/I31_cg3bysj_0.resaved.jpg,1
/home/joni/lomba/ManTraNet/data/forged/I06_dggssp3_0.jpg,1
/home/joni/lomba/ManTraNet/data/forged/I68_cqbz5pm_0.jpg,1
/home/joni/lomba/ManTraNet/data/forged/I09_co91yc6_0.jpg,1
/home/joni/lomba/ManTraNet/data/forged/I23_d28n9t6_0.resaved.jpg,1
/home/joni/lomba/ManTraNet/data/forged/I68_cqbz5pm_0.resaved.jpg,1
/home/joni/lomba/ManTraNet/data/forged/I04_d55zi8z_0.jpg,1
/home/joni/lomba/ManTraNet/data/forged/I51_d7456il_0.jpg,1
/home/joni/lomba/ManTraNet/data/forged/I66_ci0cfcb_0.resaved.jpg,1
/home/joni/lomba/ManTraNet/data/forged/I09_co91yc6_0.resaved.jpg,1
/home/joni/lomba/ManTraNet/data/forged/I40_d3cu30o_0.jpg,1
/home/joni/lomba/ManTraNet/data/forged/I66_ci0cfcb_0.jpg,1
/home/joni/lomba/ManTraNet/data/forged/I27_cjjkjik_0.jpg,1
/home/joni/lomba/ManTraNet/data/forged/I61_d6t11na_0.png,1
/home/joni/lomba/ManTraNet/data/forged/I48_crzprrw_0.png,1
/home/joni/lomba/ManTraNet/data/forged/I35_c5vuwc7_0.resaved.jpg,1
/home/joni/lomba/ManTraNet/data/forged/I43_cgz4lc3_0.resaved.jpg,1
/home/joni/lomba/ManTraNet/data/forged/I07_crowr3x_0.jpg,1
/home/joni/lomba/ManTraNet/data/forged/I64_d28uhu8_0.jpg,1
/home/joni/lomba/ManTraNet/data/forged/I45_cpo0jq1_0.resaved.jpg,1
/home/joni/lomba/ManTraNet/data/forged/I06_dggssp3_0.resaved.jpg,1
/home/joni/lomba/ManTraNet/data/forged/I13_cqbsyzy_0.resaved.jpg,1
/home/joni/lomba/ManTraNet/data/forged/I51_d7456il_0.resaved.jpg,1
/home/joni/lomba/ManTraNet/data/forged/I63_cabftvl_0.jpg,1
/home/joni/lomba/ManTraNet/data/forged/I65_cnrra78_0.jpg,1
/home/joni/lomba/ManTraNet/data/forged/I29_dg8jy3k_0.resaved.jpg,1
/home/joni/lomba/ManTraNet/data/forged/I46_cskpjxr_0.resaved.jpg,1
/home/joni/lomba/ManTraNet/data/forged/I39_cle8spn_0.jpg,1
/home/joni/lomba/ManTraNet/data/forged/I15_dp0kyvg_0.png,1
/home/joni/lomba/ManTraNet/data/forged/I59_c542dqi_0.png,1
/home/joni/lomba/ManTraNet/data/forged/I41_dlj1nzd_0.resaved.jpg,1
/home/joni/lomba/ManTraNet/data/forged/I20_c4hj6hw_0.png,1
/home/joni/lomba/ManTraNet/data/forged/I40_d3cu30o_0.resaved.jpg,1
/home/joni/lomba/ManTraNet/data/forged/I10_d2ocrts_0.resaved.jpg,1
/home/joni/lomba/ManTraNet/data/forged/I20_c4hj6hw_0.resaved.jpg,1
/home/joni/lomba/ManTraNet/data/forged/I47_dhvjugf_0.resaved.jpg,1
/home/joni/lomba/ManTraNet/data/forged/I37_cc88vwh_0.resaved.jpg,1
/home/joni/lomba/ManTraNet/data/forged/I56_cwxo9oj_0.jpg,1
/home/joni/lomba/ManTraNet/data/forged/I33_dgzdnl4_0.jpg,1
/home/joni/lomba/ManTraNet/data/forged/I56_cwxo9oj_0.resaved.jpg,1
/home/joni/lomba/ManTraNet/data/forged/I16_cpjvj5p_0.resaved.jpg,1
/home/joni/lomba/ManTraNet/data/forged/I28_c7oss1x_0.resaved.jpg,1
/home/joni/lomba/ManTraNet/data/forged/I48_crzprrw_0.resaved.jpg,1
/home/joni/lomba/ManTraNet/data/original/I21_2p7n3o.jpg,0
/home/joni/lomba/ManTraNet/data/original/I46_3bawtr.jpg,0
/home/joni/lomba/ManTraNet/data/original/I45_2zzbvc.resaved.jpg,0
/home/joni/lomba/ManTraNet/data/original/I18_4n5aje.resaved.jpg,0
/home/joni/lomba/ManTraNet/data/original/I64_4fgbl2.jpg,0
/home/joni/lomba/ManTraNet/data/original/I07_37q0oh.resaved.jpg,0
/home/joni/lomba/ManTraNet/data/original/I53_4ri2dj.resaved.jpg,0
/home/joni/lomba/ManTraNet/data/original/I51_50h92j.resaved.jpg,0
/home/joni/lomba/ManTraNet/data/original/I08_1sjp0u.jpg,0
/home/joni/lomba/ManTraNet/data/original/I16_2zjvv3.jpg,0
/home/joni/lomba/ManTraNet/data/original/I14_1ub50h.resaved.jpg,0
/home/joni/lomba/ManTraNet/data/original/I71_390tlb.jpg,0
/home/joni/lomba/ManTraNet/data/original/I61_4z4dua.resaved.jpg,0
/home/joni/lomba/ManTraNet/data/original/I11_169anw.jpg,0
/home/joni/lomba/ManTraNet/data/original/I24_4qhnk9.resaved.jpg,0
/home/joni/lomba/ManTraNet/data/original/I10_4h8f1e.jpg,0
/home/joni/lomba/ManTraNet/data/original/I67_6t7s24.jpg,0
/home/joni/lomba/ManTraNet/data/original/I51_50h92j.jpg,0
/home/joni/lomba/ManTraNet/data/original/I40_4k6x35.resaved.jpg,0
/home/joni/lomba/ManTraNet/data/original/I42_19trxa.resaved.jpg,0
/home/joni/lomba/ManTraNet/data/original/I58_23osp7.jpg,0
/home/joni/lomba/ManTraNet/data/original/I04_4s2k21.resaved.jpg,0
/home/joni/lomba/ManTraNet/data/original/I16_2zjvv3.resaved.jpg,0
/home/joni/lomba/ManTraNet/data/original/I69_2qgbfw.jpg,0
/home/joni/lomba/ManTraNet/data/original/I62_11m0x0.jpg,0
/home/joni/lomba/ManTraNet/data/original/I43_23osp7.jpg,0
/home/joni/lomba/ManTraNet/data/original/I12_40rduy.jpg,0
/home/joni/lomba/ManTraNet/data/original/I44_6xl8t5.jpg,0
/home/joni/lomba/ManTraNet/data/original/I23_4fgbl2.resaved.jpg,0
/home/joni/lomba/ManTraNet/data/original/I30_4ri2dj.resaved.jpg,0
/home/joni/lomba/ManTraNet/data/original/I26_22cznc.resaved.jpg,0
/home/joni/lomba/ManTraNet/data/original/I54_2innxw.jpg,0
/home/joni/lomba/ManTraNet/data/original/I15_79a8hf.resaved.jpg,0
/home/joni/lomba/ManTraNet/data/original/I62_11m0x0.resaved.jpg,0
/home/joni/lomba/ManTraNet/data/original/I20_svtt8.resaved.jpg,0
/home/joni/lomba/ManTraNet/data/original/I69_2qgbfw.resaved.jpg,0
/home/joni/lomba/ManTraNet/data/original/I26_22cznc.jpg,0
/home/joni/lomba/ManTraNet/data/original/I53_4ri2dj.jpg,0
/home/joni/lomba/ManTraNet/data/original/I19_390tlb.jpg,0
/home/joni/lomba/ManTraNet/data/original/I70_4hndc7.resaved.jpg,0
/home/joni/lomba/ManTraNet/data/original/I31_20h83b.jpg,0
/home/joni/lomba/ManTraNet/data/original/I29_658m66.resaved.jpg,0
/home/joni/lomba/ManTraNet/data/original/I23_4fgbl2.jpg,0
/home/joni/lomba/ManTraNet/data/original/I52_5kteqr.jpg,0
/home/joni/lomba/ManTraNet/data/original/I65_2sphw5.jpg,0
/home/joni/lomba/ManTraNet/data/original/I65_2sphw5.resaved.jpg,0
/home/joni/lomba/ManTraNet/data/original/I36_11964e.jpg,0
/home/joni/lomba/ManTraNet/data/original/I20_svtt8.jpg,0
/home/joni/lomba/ManTraNet/data/original/I02_6vzqfn.resaved.jpg,0
/home/joni/lomba/ManTraNet/data/original/I05_2jqlf6.resaved.jpg,0
/home/joni/lomba/ManTraNet/data/original/I06_669c9k.resaved.jpg,0
/home/joni/lomba/ManTraNet/data/original/I63_1fkcb9.jpg,0
/home/joni/lomba/ManTraNet/data/original/I48_390tlb.resaved.jpg,0
/home/joni/lomba/ManTraNet/data/original/I47_6cjlb2.jpg,0
/home/joni/lomba/ManTraNet/data/original/I44_6xl8t5.resaved.jpg,0
/home/joni/lomba/ManTraNet/data/original/I56_3si9nj.resaved.jpg,0
/home/joni/lomba/ManTraNet/data/original/I40_4k6x35.png,0
/home/joni/lomba/ManTraNet/data/original/I49_1u6jbm.png,0
/home/joni/lomba/ManTraNet/data/original/I00_68l3le.resaved.jpg,0
/home/joni/lomba/ManTraNet/data/original/I46_3bawtr.resaved.jpg,0
/home/joni/lomba/ManTraNet/data/original/I61_4z4dua.jpg,0
/home/joni/lomba/ManTraNet/data/original/I10_4h8f1e.resaved.jpg,0
/home/joni/lomba/ManTraNet/data/original/I57_2cfkaf.resaved.jpg,0
/home/joni/lomba/ManTraNet/data/original/I28_15q23x.jpg,0
/home/joni/lomba/ManTraNet/data/original/I09_2ujfp6.jpg,0
/home/joni/lomba/ManTraNet/data/original/I11_169anw.resaved.jpg,0
/home/joni/lomba/ManTraNet/data/original/I00_68l3le.jpg,0
/home/joni/lomba/ManTraNet/data/original/I60_5j09u7.jpg,0
/home/joni/lomba/ManTraNet/data/original/I68_32iqpy.jpg,0
/home/joni/lomba/ManTraNet/data/original/I22_41abgj.jpg,0
/home/joni/lomba/ManTraNet/data/original/I17_3z56wd.resaved.jpg,0
/home/joni/lomba/ManTraNet/data/original/I45_2zzbvc.jpg,0
/home/joni/lomba/ManTraNet/data/original/I50_669c9k.jpg,0
/home/joni/lomba/ManTraNet/data/original/I34_4qhnk9.resaved.jpg,0
/home/joni/lomba/ManTraNet/data/original/I32_zceyu.resaved.jpg,0
/home/joni/lomba/ManTraNet/data/original/I32_zceyu.jpg,0
/home/joni/lomba/ManTraNet/data/original/I70_4hndc7.jpg,0
/home/joni/lomba/ManTraNet/data/original/I39_2jqlf6.resaved.jpg,0
/home/joni/lomba/ManTraNet/data/original/I18_4n5aje.jpg,0
/home/joni/lomba/ManTraNet/data/original/I41_6t7s24.resaved.jpg,0
/home/joni/lomba/ManTraNet/data/original/I19_390tlb.resaved.jpg,0
/home/joni/lomba/ManTraNet/data/original/I25_1z31rb.jpg,0
/home/joni/lomba/ManTraNet/data/original/I33_68l3le.jpg,0
/home/joni/lomba/ManTraNet/data/original/I38_2ssod2.resaved.jpg,0
/home/joni/lomba/ManTraNet/data/original/I71_390tlb.resaved.jpg,0
/home/joni/lomba/ManTraNet/data/original/I59_vffqh.resaved.jpg,0
/home/joni/lomba/ManTraNet/data/original/I22_41abgj.resaved.jpg,0
/home/joni/lomba/ManTraNet/data/original/I59_vffqh.jpg,0
/home/joni/lomba/ManTraNet/data/original/I37_1mdk41.jpg,0
/home/joni/lomba/ManTraNet/data/original/I66_27fkc8.resaved.jpg,0
/home/joni/lomba/ManTraNet/data/original/I13_32iqpy.resaved.jpg,0
/home/joni/lomba/ManTraNet/data/original/I41_6t7s24.jpg,0
/home/joni/lomba/ManTraNet/data/original/I66_27fkc8.jpg,0
/home/joni/lomba/ManTraNet/data/original/I27_2cvv5i.resaved.jpg,0
/home/joni/lomba/ManTraNet/data/original/I60_5j09u7.resaved.jpg,0
/home/joni/lomba/ManTraNet/data/original/I57_2cfkaf.jpg,0
/home/joni/lomba/ManTraNet/data/original/I63_1fkcb9.resaved.jpg,0
/home/joni/lomba/ManTraNet/data/original/I33_68l3le.resaved.jpg,0
/home/joni/lomba/ManTraNet/data/original/I34_4qhnk9.jpg,0
/home/joni/lomba/ManTraNet/data/original/I31_20h83b.resaved.jpg,0
/home/joni/lomba/ManTraNet/data/original/I07_37q0oh.png,0
/home/joni/lomba/ManTraNet/data/original/I02_6vzqfn.jpg,0
/home/joni/lomba/ManTraNet/data/original/I05_2jqlf6.jpg,0
/home/joni/lomba/ManTraNet/data/original/I47_6cjlb2.resaved.jpg,0
/home/joni/lomba/ManTraNet/data/original/I04_4s2k21.jpg,0
/home/joni/lomba/ManTraNet/data/original/I17_3z56wd.jpg,0
/home/joni/lomba/ManTraNet/data/original/I29_658m66.jpg,0
/home/joni/lomba/ManTraNet/data/original/I35_yi6r4.jpg,0
/home/joni/lomba/ManTraNet/data/original/I12_40rduy.resaved.jpg,0
/home/joni/lomba/ManTraNet/data/original/I55_169anw.jpg,0
/home/joni/lomba/ManTraNet/data/original/I03_4ktb2f.jpg,0
/home/joni/lomba/ManTraNet/data/original/I25_1z31rb.resaved.jpg,0
/home/joni/lomba/ManTraNet/data/original/I28_15q23x.resaved.jpg,0
/home/joni/lomba/ManTraNet/data/original/I21_2p7n3o.resaved.jpg,0
/home/joni/lomba/ManTraNet/data/original/I01_4o5ya9.resaved.jpg,0
/home/joni/lomba/ManTraNet/data/original/I52_5kteqr.resaved.jpg,0
/home/joni/lomba/ManTraNet/data/original/I08_1sjp0u.resaved.jpg,0
/home/joni/lomba/ManTraNet/data/original/I64_4fgbl2.resaved.jpg,0
/home/joni/lomba/ManTraNet/data/original/I58_23osp7.resaved.jpg,0
/home/joni/lomba/ManTraNet/data/original/I01_4o5ya9.jpg,0
/home/joni/lomba/ManTraNet/data/original/I15_79a8hf.jpg,0
/home/joni/lomba/ManTraNet/data/original/I24_4qhnk9.jpg,0
/home/joni/lomba/ManTraNet/data/original/I39_2jqlf6.jpg,0
/home/joni/lomba/ManTraNet/data/original/I13_32iqpy.jpg,0
/home/joni/lomba/ManTraNet/data/original/I06_669c9k.jpg,0
/home/joni/lomba/ManTraNet/data/original/I27_2cvv5i.jpg,0
/home/joni/lomba/ManTraNet/data/original/I50_669c9k.resaved.jpg,0
/home/joni/lomba/ManTraNet/data/original/I03_4ktb2f.resaved.jpg,0
/home/joni/lomba/ManTraNet/data/original/I67_6t7s24.resaved.jpg,0
/home/joni/lomba/ManTraNet/data/original/I37_1mdk41.resaved.jpg,0
/home/joni/lomba/ManTraNet/data/original/I09_2ujfp6.resaved.jpg,0
/home/joni/lomba/ManTraNet/data/original/I48_390tlb.jpg,0
/home/joni/lomba/ManTraNet/data/original/I42_19trxa.jpg,0
/home/joni/lomba/ManTraNet/data/original/I30_4ri2dj.jpg,0
/home/joni/lomba/ManTraNet/data/original/I36_11964e.resaved.jpg,0
/home/joni/lomba/ManTraNet/data/original/I43_23osp7.resaved.jpg,0
/home/joni/lomba/ManTraNet/data/original/I56_3si9nj.jpg,0
/home/joni/lomba/ManTraNet/data/original/I35_yi6r4.resaved.jpg,0
/home/joni/lomba/ManTraNet/data/original/I54_2innxw.resaved.jpg,0
/home/joni/lomba/ManTraNet/data/original/I68_32iqpy.resaved.jpg,0
/home/joni/lomba/ManTraNet/data/original/I14_1ub50h.jpg,0
/home/joni/lomba/ManTraNet/data/original/I55_169anw.resaved.jpg,0
/home/joni/lomba/ManTraNet/data/original/I49_1u6jbm.resaved.jpg,0
/home/joni/lomba/ManTraNet/data/original/I38_2ssod2.jpg,0
